[
    {
        "title": "Level 1",
        "type": "2x2",
        "totalStars": "1.5",
        "id":1
    },
    {
        "title": "Level 2",
        "type": "3x3",
        "totalStars": "2",
        "id":2
    },
    {
        "title": "Level 3",
        "type": "4x4",
        "totalStars": "3",
        "id":3
    },
    {
        "title": "Level 4",
        "type": "5x5",
        "totalStars": "1",
        "id":4
    },
    {
        "title": "Level 5",
        "type": "6x6",
        "totalStars": "1.5",
        "id":5
    },
    {
        "title": "Level 6",
        "type": "7x7",
        "totalStars": "2.5",
        "id":6
    }
]