{
    "flashcardTitle": "Alphabets",
    "flashcardData": [
        {
            "question": "A",
            "answer": "Apple",
            "id":1
        },
        {
            "question": "B",
            "answer": "Banana",
            "id":2
        },
        {
            "question": "C",
            "answer": "Cherry",
            "id":3
        },
        {
            "question": "D",
            "answer": "Dragonfruit",
            "id":4
        },
        {
            "question": "E",
            "answer": "Elderberry",
            "id":5
        },
        {
            "question": "F",
            "answer": "Fig",
            "id":6
        }
    ]
}