<?xml version="1.0" standalone="no"?>
<!DOCTYPE svg PUBLIC "-//W3C//DTD SVG 20010904//EN"
 "http://www.w3.org/TR/2001/REC-SVG-20010904/DTD/svg10.dtd">
<svg version="1.0" xmlns="http://www.w3.org/2000/svg"
 width="200.000000pt" height="200.000000pt" viewBox="0 0 200.000000 200.000000"
 preserveAspectRatio="xMidYMid meet">

<g transform="translate(0.000000,200.000000) scale(0.100000,-0.100000)"
fill="#000000" stroke="none">
<path d="M1130 1761 c-85 -4 -154 -11 -166 -18 -12 -7 -88 -31 -170 -53 -82
-23 -174 -54 -204 -69 -106 -53 -225 -124 -260 -155 -20 -17 -64 -52 -98 -78
-35 -28 -70 -64 -82 -87 -22 -44 -26 -113 -10 -157 11 -29 520 -784 554 -822
48 -54 144 -77 212 -52 15 6 66 39 113 73 82 60 91 64 186 82 76 14 139 18
265 16 185 -2 206 2 263 57 66 64 67 72 59 627 -7 477 -8 491 -29 531 -27 52
-72 90 -121 104 -38 10 -255 11 -512 1z m505 -85 c71 -30 69 -15 76 -551 5
-427 4 -484 -10 -514 -32 -69 -34 -69 -357 -77 -266 -6 -293 -5 -328 11 -67
32 -66 21 -73 568 l-6 493 31 35 30 34 179 5 c357 11 422 11 458 -4z m-775
-408 c0 -189 3 -374 6 -413 4 -38 4 -67 0 -64 -12 12 -127 694 -121 725 7 42
60 91 103 93 9 1 12 -74 12 -341z m-196 260 c-4 -30 17 -177 70 -482 42 -241
75 -440 74 -442 -2 -1 -61 186 -131 417 -130 424 -135 449 -104 490 9 12 79
56 94 59 2 0 0 -19 -3 -42z m-59 -550 c69 -224 125 -411 125 -415 0 -10 -328
663 -351 720 -26 66 -16 102 41 146 l45 33 8 -38 c4 -22 64 -222 132 -446z
m-315 313 c0 -9 75 -170 166 -357 169 -346 193 -397 176 -379 -6 6 -103 147
-216 314 -220 325 -225 336 -191 401 25 48 65 61 65 21z"/>
<path d="M1110 1155 c-19 -45 -50 -141 -50 -157 0 -4 7 -8 15 -8 8 0 18 14 23
33 7 29 12 32 49 35 39 3 42 1 53 -32 17 -52 37 -46 36 9 -1 25 -4 45 -8 45
-4 0 -17 19 -29 43 -24 47 -48 77 -61 77 -5 0 -17 -20 -28 -45z m55 -35 c20
-39 20 -40 -15 -40 -16 0 -30 4 -30 10 0 10 22 60 26 60 2 0 10 -13 19 -30z"/>
<path d="M1303 1193 c-28 -5 -54 -34 -35 -40 8 -3 12 -29 12 -84 l0 -79 40 0
c30 0 47 7 65 25 29 28 31 42 9 67 -14 14 -14 20 -4 33 18 21 5 60 -25 73 -14
7 -29 11 -33 11 -4 -1 -17 -4 -29 -6z m58 -39 c11 -14 10 -18 -6 -30 -30 -22
-45 -17 -45 16 0 23 5 30 19 30 10 0 25 -7 32 -16z m4 -104 c0 -20 -6 -26 -27
-28 -25 -3 -28 0 -28 28 0 28 3 31 28 28 21 -2 27 -8 27 -28z"/>
<path d="M1492 1170 c-18 -11 -40 -35 -49 -54 -14 -31 -15 -39 -2 -73 19 -49
58 -70 99 -53 28 12 49 45 36 57 -3 4 -17 -4 -30 -16 -30 -28 -59 -21 -76 19
-9 23 -9 34 2 57 17 36 63 60 83 43 21 -17 37 -3 25 21 -14 24 -46 24 -88 -1z"/>
</g>
</svg>
